208.232.87.36 - - [02/Apr/1998:10:48:09 -0800] "GET / HTTP/1.1" 200 444
208.232.87.36 - - [02/Apr/1998:10:48:12 -0800] "GET /cgi-bin/main/login.pl HTTP/1.1" 200 1781
208.232.87.36 - - [02/Apr/1998:10:48:21 -0800] "POST /cgi-bin/main/login.pl HTTP/1.1" 200 2359
208.232.87.36 - - [02/Apr/1998:10:48:28 -0800] "GET /cgi-bin/sysadmin/status.pl?GWISAction=a&GWISmin= HTTP/1.1" 200 2678
208.232.87.36 - - [02/Apr/1998:10:48:33 -0800] "GET /cgi-bin/sysadmin/status.pl?GWISAction=a&GWISmin= HTTP/1.1" 200 2678
208.232.87.36 - - [02/Apr/1998:10:48:36 -0800] "GET /cgi-bin/main/menu.pl?GWISAction=d&GWISmin= HTTP/1.1" 200 2236
208.232.87.36 - - [02/Apr/1998:10:48:39 -0800] "GET /cgi-bin/language/htmlin?GWISAction=da&GWISmin= HTTP/1.1" 200 453
208.232.87.36 - - [02/Apr/1998:10:48:45 -0800] "POST /cgi-bin/language/htmlin HTTP/1.1" 200 453
208.232.87.36 - - [02/Apr/1998:10:48:53 -0800] "POST /cgi-bin/language/htmlin HTTP/1.1" 200 453
208.232.87.36 - - [02/Apr/1998:10:49:02 -0800] "POST /cgi-bin/language/htmlin HTTP/1.1" 200 500
208.232.87.36 - - [02/Apr/1998:10:49:03 -0800] "GET /cgi-bin/language/htmlin?session=monkey&u:client:screen=main:welcome HTTP/1.1" 200 387
208.232.87.36 - - [02/Apr/1998:10:49:03 -0800] "GET /cgi-bin/language/htmlin?session=monkey&u:client:screen=main:menu HTTP/1.1" 200 1594
208.232.87.36 - - [02/Apr/1998:10:49:04 -0800] "GET /cgi-bin/language/htmlbinaryin?session=monkey&u:client:screen=main:mainBottombar&u:client:name=main:wis_layer HTTP/1.1" 200 3828
208.232.87.36 - - [02/Apr/1998:10:49:04 -0800] "GET /cgi-bin/language/htmlbinaryin?session=monkey&u:client:screen=main:mainBottombar&u:client:name=main:wis_home HTTP/1.1" 200 13648
208.232.87.36 - - [02/Apr/1998:10:49:05 -0800] "GET /cgi-bin/language/htmlbinaryin?session=monkey&u:client:screen=main:main&u:client:name=main:icon-news HTTP/1.1" 200 1506
208.232.87.36 - - [02/Apr/1998:10:49:05 -0800] "GET /cgi-bin/language/htmlbinaryin?session=monkey&u:client:screen=main:main&u:client:name=main:icon-weather HTTP/1.1" 200 1002
208.232.87.36 - - [02/Apr/1998:10:49:06 -0800] "GET /cgi-bin/language/htmlbinaryin?session=monkey&u:client:screen=main:main&u:client:name=main:icon-restaurant HTTP/1.1" 200 873
208.232.87.36 - - [02/Apr/1998:10:49:06 -0800] "GET /cgi-bin/language/htmlbinaryin?session=monkey&u:client:screen=main:main&u:client:name=main:icon-stock HTTP/1.1" 200 1209
208.232.87.36 - - [02/Apr/1998:10:49:07 -0800] "GET /cgi-bin/language/htmlbinaryin?session=monkey&u:client:screen=main:main&u:client:name=main:icon-configure HTTP/1.1" 200 1206
208.232.87.36 - - [02/Apr/1998:10:49:17 -0800] "GET /cgi-bin/language/htmlin?session=monkey&u:client:screen=news:headlines HTTP/1.1" 200 4936
208.232.87.36 - - [02/Apr/1998:10:49:18 -0800] "GET /cgi-bin/language/htmlbinaryin?session=monkey&u:client:screen=news:main&u:client:name=news:icon-news HTTP/1.1" 200 34057
208.232.87.36 - - [02/Apr/1998:10:49:21 -0800] "GET /cgi-bin/language/htmlin?session=monkey&u:client:screen=news:story&u:request:storykey=19980401-00014629 HTTP/1.1" 200 1022
208.232.87.36 - - [02/Apr/1998:10:49:43 -0800] "GET /cgi-bin/language/htmlin?session=monkey&u:client:screen=news:story&u:request:storykey=19980401-00013869 HTTP/1.1" 200 1409
208.232.87.36 - - [02/Apr/1998:10:49:49 -0800] "GET /cgi-bin/language/htmlin?session=monkey&u:client:screen=news:story&u:request:storykey=19980401-00014015 HTTP/1.1" 200 1334
208.232.87.36 - - [02/Apr/1998:10:49:52 -0800] "GET /cgi-bin/language/htmlin?session=monkey&u:client:screen=news:story&u:request:storykey=19980401-00014190 HTTP/1.1" 200 1226
208.232.87.36 - - [02/Apr/1998:10:49:55 -0800] "GET /cgi-bin/language/htmlin?session=monkey&u:client:screen=news:story&u:request:storykey=19980401-00014257 HTTP/1.1" 200 1372
208.232.87.36 - - [02/Apr/1998:10:50:03 -0800] "GET /cgi-bin/language/htmlin?session=monkey&u:client:screen=news:story&u:request:storykey=19980401-00013086 HTTP/1.1" 200 1221
208.232.87.36 - - [02/Apr/1998:10:50:12 -0800] "GET /cgi-bin/language/htmlin?session=monkey&u:client:screen=news:headlines HTTP/1.1" 200 4936
208.232.87.36 - - [02/Apr/1998:10:50:14 -0800] "GET /cgi-bin/language/htmlin?session=monkey&u:client:screen=investment:main HTTP/1.1" 200 1248
208.232.87.36 - - [02/Apr/1998:10:50:15 -0800] "GET /cgi-bin/language/htmlbinaryin?session=monkey&u:client:screen=investment:main&u:client:name=investment:icon-stock HTTP/1.1" 200 27681
208.232.87.36 - - [02/Apr/1998:10:50:20 -0800] "GET /cgi-bin/language/htmlin?session=monkey&u%3Arequest%3Aticker1=gwrz&u%3Arequest%3Aticker2=&u%3Arequest%3Aticker3=&u%3Arequest%3Aticker4=&u%3Arequest%3Aticker5=&u%3Arequest%3Aticker6=&u%3Aclient%3Ascreen=investment%3Aresults HTTP/1.1" 200 1483
208.232.87.36 - - [02/Apr/1998:10:50:27 -0800] "GET /cgi-bin/language/htmlin?session=monkey&u%3Arequest%3Aticker1=gwrz&u%3Arequest%3Aticker2=&u%3Arequest%3Aticker3=&u%3Arequest%3Aticker4=&u%3Arequest%3Aticker5=&u%3Arequest%3Aticker6=&u%3Aclient%3Ascreen=investment%3Aresults HTTP/1.1" 200 1483
208.232.87.36 - - [02/Apr/1998:10:50:28 -0800] "GET /cgi-bin/language/htmlbinaryin?session=monkey&u:client:screen=investment:main&u:client:name=investment:icon-stock HTTP/1.1" 200 27681
208.232.87.36 - - [02/Apr/1998:10:50:39 -0800] "GET /cgi-bin/language/htmlin?session=monkey&u%3Arequest%3Aticker1=gwrx&u%3Arequest%3Aticker2=asnd&u%3Arequest%3Aticker3=iqsw&u%3Arequest%3Aticker4=&u%3Arequest%3Aticker5=&u%3Arequest%3Aticker6=&u%3Aclient%3Ascreen=investment%3Aresults HTTP/1.1" 200 2610
208.232.87.36 - - [02/Apr/1998:10:50:40 -0800] "GET /cgi-bin/language/htmlbinaryin?session=monkey&u:client:screen=investment:main&u:client:name=investment:icon-stock HTTP/1.1" 200 27681
208.232.87.36 - - [02/Apr/1998:10:50:50 -0800] "GET /cgi-bin/language/htmlin?session=monkey&u:client:screen=weather:results HTTP/1.1" 200 9760
208.232.87.36 - - [02/Apr/1998:10:50:51 -0800] "GET /cgi-bin/language/htmlbinaryin?session=monkey&u:client:screen=weather:main&u:client:name=weather:icon-weather HTTP/1.1" 200 27356
208.232.87.36 - - [02/Apr/1998:10:50:51 -0800] "GET /cgi-bin/language/htmlbinaryin?session=monkey&u:client:screen=weather:main&u:client:name=weather:icon-mostly-cloudy HTTP/1.1" 200 777
208.232.87.36 - - [02/Apr/1998:10:51:01 -0800] "GET /cgi-bin/language/htmlin?session=monkey&u%3Arequest%3Alocation=SFO&getWeather=1&u%3Aclient%3Ascreen=weather%3Aresults HTTP/1.1" 200 10238
208.232.87.36 - - [02/Apr/1998:10:51:02 -0800] "GET /cgi-bin/language/htmlbinaryin?session=monkey&u:client:screen=weather:main&u:client:name=weather:icon-rain HTTP/1.1" 200 1019
208.232.87.36 - - [02/Apr/1998:10:51:02 -0800] "GET /cgi-bin/language/htmlbinaryin?session=monkey&u:client:screen=weather:main&u:client:name=weather:icon-sunny HTTP/1.1" 200 751
208.232.87.36 - - [02/Apr/1998:10:51:04 -0800] "GET /cgi-bin/language/htmlbinaryin?session=monkey&u:client:screen=weather:main&u:client:name=weather:icon-fair HTTP/1.1" 200 702
208.232.87.36 - - [02/Apr/1998:10:51:04 -0800] "GET /cgi-bin/language/htmlbinaryin?session=monkey&u:client:screen=weather:main&u:client:name=weather:icon-partly-cloudy HTTP/1.1" 200 777
208.232.87.36 - - [02/Apr/1998:10:51:09 -0800] "GET /cgi-bin/language/htmlin?session=monkey&u:client:screen=main:settings HTTP/1.1" 200 4129
208.232.87.36 - - [02/Apr/1998:10:51:13 -0800] "GET /cgi-bin/language/htmlin?session=monkey&u:client:screen=restaurant:main HTTP/1.1" 200 2088
208.232.87.36 - - [02/Apr/1998:10:51:14 -0800] "GET /cgi-bin/language/htmlbinaryin?session=monkey&u:client:screen=restaurant:main&u:client:name=restaurant:icon-restaurant HTTP/1.1" 200 30023
208.232.87.36 - - [02/Apr/1998:10:51:17 -0800] "GET /cgi-bin/language/htmlin?session=monkey&u%3Aclient%3Ascreen=restaurant%3Alocation HTTP/1.1" 200 2715
208.232.87.36 - - [02/Apr/1998:10:51:24 -0800] "GET /cgi-bin/language/htmlin?session=monkey&u%3Arequest%3Alocation=5&u%3Aclient%3Ascreen=restaurant%3Amain HTTP/1.1" 200 2142
208.232.87.36 - - [02/Apr/1998:10:51:25 -0800] "GET /cgi-bin/language/htmlbinaryin?session=monkey&u:client:screen=restaurant:main&u:client:name=restaurant:icon-restaurant HTTP/1.1" 200 30023
208.232.87.36 - - [02/Apr/1998:10:51:32 -0800] "GET /cgi-bin/language/htmlin?session=monkey&u%3Arequest%3Asorttype=pricelevel&u%3Arequest%3Acity=New+York&u%3Arequest%3Astate=NY&u%3Arequest%3Acountry=&u%3Arequest%3Acuisine=ALL&u%3Aclient%3Ascreen=restaurant%3Amain_city_index&u%3Arequest%3Asortorder=asc&u%3Arequest%3Astartindex=QL0-0001-01 HTTP/1.1" 200 3435
208.232.87.36 - - [02/Apr/1998:10:51:36 -0800] "GET /cgi-bin/language/htmlin?session=monkey&u:client:screen=restaurant:listing&u:request:restaurantid=QNY-0590-03 HTTP/1.1" 200 848
208.232.87.36 - - [02/Apr/1998:10:51:45 -0800] "GET /cgi-bin/language/htmlin?session=monkey&u%3Arequest%3Acity=New+York&u%3Arequest%3Astate=NY&u%3Arequest%3Acountry=&u%3Arequest%3Asorttype=pricelevel&u%3Arequest%3Asortorder=asc&u%3Arequest%3Acuisine=ALL&u%3Arequest%3Astartindex=QNY-0651-01&u%3Aclient%3Ascreen=restaurant%3Amain_city_index&session=monkey&u%3Aclient%3Ascreen=restaurant%3Amain HTTP/1.1" 200 3385
208.232.87.36 - - [02/Apr/1998:10:51:46 -0800] "GET /cgi-bin/language/htmlbinaryin?session=monkey&u:client:screen=restaurant:main&u:client:name=restaurant:icon-restaurant HTTP/1.1" 200 30023
208.232.87.36 - - [02/Apr/1998:10:51:48 -0800] "GET /cgi-bin/language/htmlin?session=monkey&u:client:screen=restaurant:listing&u:request:restaurantid=QNY-1103-01 HTTP/1.1" 200 922
208.232.87.36 - - [02/Apr/1998:10:51:51 -0800] "GET /cgi-bin/language/htmlin?session=monkey&u:client:screen=restaurant:main HTTP/1.1" 200 2088
208.232.87.36 - - [02/Apr/1998:10:52:01 -0800] "GET /cgi-bin/language/htmlin?session=monkey&u:client:screen=restaurant:main HTTP/1.1" 200 2088
208.232.87.36 - - [02/Apr/1998:10:52:06 -0800] "GET /cgi-bin/language/htmlin?session=monkey&u:client:screen=restaurant:listing&u:request:restaurantid=QNY-2006-01 HTTP/1.1" 200 835
208.232.87.36 - - [02/Apr/1998:10:52:13 -0800] "GET /cgi-bin/language/htmlin?session=monkey&u%3Arequest%3Acity=New+York&u%3Arequest%3Astate=NY&u%3Arequest%3Acountry=&u%3Arequest%3Asorttype=pricelevel&u%3Arequest%3Asortorder=asc&u%3Arequest%3Acuisine=ALL&u%3Arequest%3Astartindex=QNY-2004-01&u%3Aclient%3Ascreen=restaurant%3Amain_city_index&session=monkey&u%3Aclient%3Ascreen=restaurant%3Amain HTTP/1.1" 200 3379
208.232.87.36 - - [02/Apr/1998:10:52:14 -0800] "GET /cgi-bin/language/htmlbinaryin?session=monkey&u:client:screen=restaurant:main&u:client:name=restaurant:icon-restaurant HTTP/1.1" 200 30023
208.232.87.36 - - [02/Apr/1998:10:52:19 -0800] "GET /cgi-bin/language/htmlin?session=monkey&u%3Arequest%3Acity=New+York&u%3Arequest%3Astate=NY&u%3Arequest%3Acountry=&u%3Arequest%3Asorttype=pricelevel&u%3Arequest%3Asortorder=asc&u%3Arequest%3Acuisine=ALL&u%3Arequest%3Astartindex=QNY-2025-01&u%3Aclient%3Ascreen=restaurant%3Amain_city_index&session=monkey&u%3Aclient%3Ascreen=restaurant%3Amain HTTP/1.1" 200 3385
208.232.87.36 - - [02/Apr/1998:10:52:23 -0800] "GET /cgi-bin/language/htmlin?session=monkey&u:client:screen=restaurant:listing&u:request:restaurantid=QNY-2043-01 HTTP/1.1" 200 803
208.232.87.36 - - [02/Apr/1998:10:52:28 -0800] "GET /cgi-bin/language/htmlin?session=monkey&u:client:screen=restaurant:main HTTP/1.1" 200 2088
208.232.87.36 - - [02/Apr/1998:10:52:31 -0800] "GET /cgi-bin/language/htmlin?session=monkey&u%3Aclient%3Ascreen=restaurant%3Alocation HTTP/1.1" 200 2715
208.232.87.36 - - [02/Apr/1998:10:52:38 -0800] "GET /cgi-bin/language/htmlin?session=monkey&u%3Arequest%3Alocation=5&u%3Aclient%3Ascreen=restaurant%3Amain HTTP/1.1" 200 2142
208.232.87.36 - - [02/Apr/1998:10:52:40 -0800] "GET /cgi-bin/language/htmlbinaryin?session=monkey&u:client:screen=restaurant:main&u:client:name=restaurant:icon-restaurant HTTP/1.1" 200 24576
208.232.87.36 - - [02/Apr/1998:10:52:41 -0800] "GET /cgi-bin/language/htmlin?session=monkey&u%3Arequest%3Acity=New+York&u%3Arequest%3Astate=NY&u%3Aclient%3Ascreen=restaurant%3Acuisine HTTP/1.1" 200 1225
208.232.87.36 - - [02/Apr/1998:10:52:47 -0800] "GET /cgi-bin/language/htmlin?session=monkey&u%3Arequest%3Acuisine=1&u%3Aclient%3Ascreen=restaurant%3Asubcuisine&u%3Arequest%3Acity=New+York&u%3Arequest%3Astate=NY HTTP/1.1" 200 1524
208.232.87.36 - - [02/Apr/1998:10:52:49 -0800] "GET /cgi-bin/language/htmlin?session=monkey&u%3Arequest%3Asubcuisine=&u%3Aclient%3Ascreen=restaurant%3Amain&u%3Arequest%3Acuisine=1&u%3Arequest%3Acity=New+York&u%3Arequest%3Astate=NY HTTP/1.1" 200 2299
208.232.87.36 - - [02/Apr/1998:10:52:50 -0800] "GET /cgi-bin/language/htmlbinaryin?session=monkey&u:client:screen=restaurant:main&u:client:name=restaurant:icon-restaurant HTTP/1.1" 200 30023
208.232.87.36 - - [02/Apr/1998:10:52:55 -0800] "GET /cgi-bin/language/htmlin?session=monkey&u%3Arequest%3Asorttype=pricelevel&u%3Arequest%3Acity=New+York&u%3Arequest%3Astate=NY&u%3Arequest%3Acountry=US&u%3Arequest%3Acuisine=1&u%3Aclient%3Ascreen=restaurant%3Amain_city_index&u%3Arequest%3Asortorder=asc&u%3Arequest%3Astartindex=QL0-0001-01 HTTP/1.1" 200 3425
208.232.87.36 - - [02/Apr/1998:10:53:00 -0800] "GET /cgi-bin/language/htmlin?session=monkey&u:client:screen=restaurant:listing&u:request:restaurantid=QNY-0270-06 HTTP/1.1" 200 857
208.232.87.36 - - [02/Apr/1998:10:53:09 -0800] "GET /cgi-bin/language/htmlin?session=monkey&u:client:screen=news:headlines HTTP/1.1" 200 4936

