 : RX: GO Command
0 : --> Script has been started.
1853 : PUT  : 2  null  t=1512
      : http://thulium.testing.com/cgi-bin/language/htmlin?username=bob1&password=bob1
1923 : SYNC: Starting at 1923
2353 : PUT  : 2  null  t=1442
      : http://thulium.testing.com/cgi-bin/language/htmlin?username=bob3&password=bob3
3155 : PUT  : 2  null  t=1442
      : http://thulium.testing.com/cgi-bin/language/htmlin?username=bob6&password=bob6
3355 : PUT  : 2  null  t=1502
      : http://thulium.testing.com/cgi-bin/language/htmlin?session=bob1&u:client:screen=main:menu
3856 : PUT  : 2  null  t=1503
      : http://thulium.testing.com/cgi-bin/language/htmlin?session=bob3&u:client:screen=main:menu
4657 : PUT  : 2  null  t=1502
      : http://thulium.testing.com/cgi-bin/language/htmlin?session=bob6&u:client:screen=main:menu
4857 : PUT  : 2  null  t=1502
      : http://thulium.testing.com/cgi-bin/language/htmlin?session=bob1&u:client:screen=main:welcome
5358 : PUT  : 2  null  t=1502
      : http://thulium.testing.com/cgi-bin/language/htmlin?session=bob3&u:client:screen=main:welcome
6139 : RX: PING Command
6159 : PUT  : 2  null  t=1502
      : http://thulium.testing.com/cgi-bin/language/htmlin?session=bob6&u:client:screen=main:welcome
6359 : PUT  : 2  null  t=1502
      : http://thulium.testing.com/cgi-bin/language/htmlin?username=bob2&password=bob2
6860 : PUT  : 2  null  t=1502
      : http://thulium.testing.com/cgi-bin/language/htmlin?username=bob4&password=bob4
7871 : PUT  : 2  null  t=1512
      : http://thulium.testing.com/cgi-bin/language/htmlin?session=bob2&u:client:screen=main:menu
8372 : PUT  : 2  null  t=1512
      : http://thulium.testing.com/cgi-bin/language/htmlin?session=bob4&u:client:screen=main:menu
9374 : PUT  : 2  null  t=1503
      : http://thulium.testing.com/cgi-bin/language/htmlin?session=bob2&u:client:screen=main:welcome
9874 : PUT  : 2  null  t=1502
      : http://thulium.testing.com/cgi-bin/language/htmlin?session=bob4&u:client:screen=main:welcome
11386 : PUT  : 2  null  t=1512
      : http://thulium.testing.com/cgi-bin/language/htmlin?username=bob5&password=bob5
11457 : RX: PING Command
12879 : PUT  : 2  null  t=1493
      : http://thulium.testing.com/cgi-bin/language/htmlin?session=bob5&u:client:screen=main:menu
14391 : PUT  : 2  null  t=1512
      : http://thulium.testing.com/cgi-bin/language/htmlin?session=bob5&u:client:screen=main:welcome
14471 : SYNC:  Sync cleared.
14571 : END : Ending at 14571
14671 : DONE!!! Ending at 14671
16283 : RX: PING Command
17385 : RX: STOP Command
17505 : --> STOP Rejected.
18527 : RX: GETLOG Command
<